module granola

go 1.21

require (
	github.com/gin-contrib/multitemplate v0.0.0-20231230012943-32b233489a81
	github.com/gin-contrib/sessions v0.0.4
	github.com/gin-gonic/gin v1.9.1
	github.com/spf13/viper v1.18.2
	github.com/stretchr/testify v1.8.4
	golang.org/x/crypto v0.19.0
	gorm.io/driver/sqlite v1.5.1
	gorm.io/gorm v1.25.7
)

require (
	github.com/dustin/go-humanize v1.0.1
	github.com/google/uuid v1.6.0
	github.com/gosimple/slug v1.13.1
	github.com/skip2/go-qrcode v0.0.0-20200617195104-da1b6568686e
	github.com/yuin/goldmark v1.7.0
)

require (
	github.com/bytedance/sonic v1.11.0 // indirect
	github.com/chenzhuoyu/base64x v0.0.0-20230717121745-296ad89f973d // indirect
	github.com/chenzhuoyu/iasm v0.9.1 // indirect
	github.com/gabriel-vasile/mimetype v1.4.3 // indirect
	github.com/gosimple/unidecode v1.0.1 // indirect
	github.com/klauspost/cpuid/v2 v2.2.7 // indirect
	github.com/sagikazarmark/locafero v0.4.0 // indirect
	github.com/sagikazarmark/slog-shim v0.1.0 // indirect
	github.com/sourcegraph/conc v0.3.0 // indirect
	github.com/twitchyliquid64/golang-asm v0.15.1 // indirect
	go.uber.org/multierr v1.11.0 // indirect
	golang.org/x/arch v0.7.0 // indirect
	golang.org/x/exp v0.0.0-20240222234643-814bf88cf225 // indirect
)

require (
	github.com/bu/gin-method-override v0.0.0-20210107045130-0be2f37312dc
	github.com/davecgh/go-spew v1.1.2-0.20180830191138-d8f796af33cc // indirect
	github.com/fsnotify/fsnotify v1.7.0 // indirect
	github.com/gin-contrib/sse v0.1.0 // indirect
	github.com/go-playground/locales v0.14.1
	github.com/go-playground/universal-translator v0.18.1
	github.com/go-playground/validator/v10 v10.18.0
	github.com/goccy/go-json v0.10.2 // indirect
	github.com/gorilla/context v1.1.2 // indirect
	github.com/gorilla/securecookie v1.1.2 // indirect
	github.com/gorilla/sessions v1.2.2 // indirect
	github.com/hashicorp/hcl v1.0.0 // indirect
	github.com/jinzhu/inflection v1.0.0 // indirect
	github.com/jinzhu/now v1.1.5 // indirect
	github.com/json-iterator/go v1.1.12 // indirect
	github.com/leodido/go-urn v1.4.0 // indirect
	github.com/magiconair/properties v1.8.7 // indirect
	github.com/mattn/go-isatty v0.0.20 // indirect
	github.com/mattn/go-sqlite3 v1.14.16 // indirect
	github.com/mitchellh/mapstructure v1.5.0
	github.com/modern-go/concurrent v0.0.0-20180306012644-bacd9c7ef1dd // indirect
	github.com/modern-go/reflect2 v1.0.2 // indirect
	github.com/pelletier/go-toml/v2 v2.1.1 // indirect
	github.com/pmezard/go-difflib v1.0.1-0.20181226105442-5d4384ee4fb2 // indirect
	github.com/spf13/afero v1.11.0 // indirect
	github.com/spf13/cast v1.6.0
	github.com/spf13/pflag v1.0.5 // indirect
	github.com/subosito/gotenv v1.6.0 // indirect
	github.com/ugorji/go/codec v1.2.12 // indirect
	golang.org/x/net v0.21.0 // indirect
	golang.org/x/sys v0.17.0 // indirect
	golang.org/x/text v0.14.0
	google.golang.org/protobuf v1.32.0 // indirect
	gopkg.in/ini.v1 v1.67.0 // indirect
	gopkg.in/yaml.v3 v3.0.1
)
